…
{% highlight r %}
library(tidyverse)
x %>%
  group_by(product) %>%
  summarise(ci_lower_bound = ((sum(rating == 1) + 1.9208) / (sum(rating == 1) + sum(rating == 0)) - 
                   1.96 * sqrt((sum(rating == 1) * sum(rating == 0)) / (sum(rating == 1) + sum(rating == 0)) + 0.9604) / 
                          (sum(rating == 1) + sum(rating == 0))) / (1 + 3.8416 / (sum(rating == 1) + sum(rating == 0)))) %>%
  arrange(desc(ci_lower_bound))
{% endhighlight %}



{% highlight text %}
## # A tibble: 26 × 2
##    product ci_lower_bound
##      <chr>          <dbl>
## 1        K      0.5462516
## 2        T      0.4836251
## 3        R      0.4791366
## 4        U      0.4670596
## 5        I      0.4232005
## 6        D      0.4219207
## 7        O      0.4039863
## 8        H      0.3970603
## 9        Q      0.3970603
## 10       C      0.3856919
## # ... with 16 more rows
…
